0,313.7,201.7,0.4,1.647,-1.517
0.1,313.7,201.9,0.3,1.647,-1.517
0.2,313.7,201.7,0.3,1.647,-1.518
0.3,313.7,201.7,0.4,1.647,-1.518
0.4,313.8,201.8,0.2,1.647,-1.519
0.5,330.1,201.8,4.7,1.647,-1.519
0.6,337.4,201.6,13.3,1.647,-1.519
0.7,346.1,201.5,30.9,1.647,-1.519
0.8,350,201,46.3,1.647,-1.497
0.9,349.7,200.6,49.2,1.647,-1.439
1,342,200.3,47.7,1.646,-1.439
1.1,336.7,200.1,46.9,1.646,-1.413
1.2,324.4,200,37.3,1.647,-1.409
1.3,312.7,199.5,22,1.646,-1.407
1.4,300.5,198.7,-10.3,1.646,-1.407
1.5,286.4,200.1,-43.8,1.647,-1.416
1.6,277.3,200.9,-67.9,1.647,-1.499
1.7,269.7,203.1,-87.7,1.649,-1.611
1.8,266,204.2,-98.2,1.649,-1.718
1.9,266.4,204.8,-99.5,1.65,-1.718
2,274.9,204.1,-96.9,1.65,-1.812
2.1,278.9,203.4,-95.5,1.65,-1.844
2.2,290.7,202.7,-86.3,1.65,-1.846
2.3,304.2,199.7,-63.7,1.651,-1.846
2.4,316.4,195.6,-33.7,1.65,-1.845
2.5,328.3,192.9,-4.3,1.65,-1.797
2.6,337.9,192.5,18.1,1.649,-1.668
2.7,346,192.6,36.2,1.648,-1.553
2.8,349.6,192.9,47,1.647,-1.553
2.9,349.6,193,49.8,1.647,-1.474
3,341.5,192.5,48.1,1.647,-1.429
3.1,337.3,192.4,47.1,1.646,-1.418
3.2,324.1,192.1,38.5,1.647,-1.418
3.3,312.5,190.8,20.3,1.646,-1.417
3.4,300.1,189.3,-10.8,1.647,-1.418
3.5,286.3,190.7,-43.1,1.647,-1.467
3.6,276.9,193.7,-67.9,1.647,-1.467
3.7,269.6,197.9,-87.8,1.649,-1.592
3.8,266.1,201.1,-98,1.65,-1.709
3.9,266.3,201.7,-99.7,1.65,-1.807
4,274.8,201.6,-97.6,1.65,-1.854
4.1,279.1,201.4,-96.4,1.65,-1.854
4.2,290.9,201.1,-88.2,1.65,-1.863
4.3,303,197.3,-64.5,1.65,-1.865
4.4,325.4,191.2,-19.9,1.65,-1.852
4.5,353,190.3,51.8,1.65,-1.852
4.6,369.2,194,94.1,1.648,-1.71
4.7,383.4,201,131,1.646,-1.424
4.8,389,208,143.9,1.646,-1.208
4.9,389.2,209.4,145.2,1.646,-0.968
5,387.5,208.3,141.6,1.645,-0.968
5.1,373.3,206.8,136.3,1.645,-0.832
5.2,354.1,203.5,110.6,1.645,-0.803
5.3,333.8,186.6,63.4,1.645,-0.802
5.4,312.5,174.2,16.5,1.645,-0.802
5.5,293.2,170.9,-34.2,1.646,-0.922
5.6,274.9,177.7,-75.3,1.647,-1.181
5.7,263.4,187.7,-105.4,1.649,-1.476
5.8,257.4,196.3,-121.6,1.65,-1.779
5.9,257.6,199.4,-122.4,1.65,-1.779
6,260.4,200,-119.1,1.651,-2.008
6.1,275.2,199.4,-114.9,1.651,-2.085
6.2,292.1,194.7,-87.6,1.651,-2.094
6.3,311.7,181.6,-39.3,1.651,-2.094
6.4,331.6,172.3,3.8,1.651,-2.062
6.5,343.5,170.6,35.4,1.649,-1.85
6.6,361,171.7,78.8,1.648,-1.642
6.7,370.2,179.6,102.3,1.647,-1.425
6.8,375.8,185.5,116.1,1.647,-1.425
6.9,376.6,188,118.5,1.646,-1.171
7,375.2,187.4,115.8,1.646,-1.015
7.1,362.9,186.5,112.7,1.646,-0.972
7.2,347.5,185.2,87.9,1.646,-0.972
7.3,327.3,170.6,46.7,1.646,-0.97
7.4,307.9,161.2,1.9,1.645,-0.997
7.5,290.6,161.7,-42.8,1.647,-1.178
7.6,274.3,171.3,-77.6,1.648,-1.178
7.7,263.6,184.3,-105.3,1.65,-1.452
7.8,258.9,193.7,-117.6,1.65,-1.733
7.9,258.8,196.6,-118.5,1.651,-1.99
8,260.1,196.1,-115.7,1.651,-2.094
8.1,274.2,195.8,-112.4,1.651,-2.094
8.2,289.6,192.4,-89,1.651,-2.115
8.3,307.4,181.6,-44.8,1.651,-2.117
8.4,326.3,169.9,-0.4,1.651,-2.03
8.5,346.2,166.6,40.6,1.649,-2.03
8.6,360.9,168.8,77.1,1.648,-1.793
8.7,371.3,176.8,105.2,1.648,-1.544
8.8,377,183.4,118.9,1.646,-1.293
8.9,377.1,184.9,119.8,1.646,-1.052
9,375.7,184.3,117.2,1.645,-1.052
9.1,362.8,183.7,114.3,1.646,-0.967
9.2,347.8,182.1,90.7,1.646,-0.96
9.3,326.4,166.4,46.8,1.646,-0.959
9.4,307.4,157.4,2.5,1.646,-0.959
9.5,290.1,157.9,-42.3,1.647,-1.064
9.6,274.5,170,-79.3,1.649,-1.313
9.7,263.3,183.5,-104.7,1.649,-1.606
9.8,257.8,192.9,-119.7,1.65,-1.921
9.9,257.7,196.8,-120.8,1.651,-1.921
10,259.2,196.4,-117.9,1.651,-2.103
10.1,273.8,196,-114.6,1.651,-2.159
10.2,289.4,191.4,-90.8,1.651,-2.163
10.3,307.6,179.5,-45.8,1.651,-2.163
10.4,326.4,168.6,-1.1,1.65,-2.139
10.5,346.7,164.1,40.6,1.649,-1.95
10.6,361.2,166.1,77,1.649,-1.697
10.7,371.8,175,106.2,1.647,-1.439
10.8,377.1,181.6,119.1,1.646,-1.439
10.9,377.3,182.9,120.7,1.646,-1.147
11,375.9,182.6,118.1,1.646,-0.986
11.1,362.9,181.9,115.1,1.646,-0.954
11.2,347.4,180,91.2,1.646,-0.954
11.3,329.4,166.4,49.3,1.646,-0.952
11.4,307.5,155.1,4.3,1.646,-0.979
11.5,290.1,156.2,-40.6,1.647,-1.171
11.6,274.8,169.2,-77.7,1.647,-1.171
11.7,264.3,183,-103.9,1.649,-1.457
11.8,258.1,192.3,-118.7,1.65,-1.788
11.9,258.2,195.6,-120.1,1.651,-2.058
12,259.7,195.4,-117.4,1.651,-2.168
12.1,272.6,194.9,-114.3,1.651,-2.168
12.2,290.2,189.7,-90.1,1.651,-2.188
12.3,308.5,176.9,-45.2,1.651,-2.187
12.4,326.8,166.8,-1.5,1.65,-2.079
12.5,344.5,163.4,39.2,1.65,-2.079
12.6,361.3,165,76.1,1.648,-1.837
12.7,371.5,173.1,105,1.647,-1.579
12.8,376.9,180.9,118.5,1.646,-1.298
12.9,377.1,181.9,120.3,1.646,-1.042
13,375.6,181.3,117.7,1.646,-1.042
13.1,362.1,180.4,114.7,1.646,-0.961
13.2,347,178.3,91.9,1.646,-0.954
13.3,328.9,164.6,50.4,1.646,-0.953
13.4,306.8,153.4,4.8,1.646,-0.953
13.5,289.7,154.9,-40.2,1.646,-1.062
13.6,274.8,166.3,-76.3,1.647,-1.318
13.7,264,182.6,-104,1.649,-1.624
13.8,258.2,191.8,-118.3,1.65,-1.97
13.9,258.3,194.9,-119.9,1.65,-1.97
14,259.8,194.8,-117.2,1.651,-2.156
14.1,273,194.3,-114.1,1.651,-2.203
14.2,290.4,190,-91.1,1.651,-2.208
14.3,308.5,175.8,-46.7,1.651,-2.208
14.4,327.2,165.8,-2,1.651,-2.177
14.5,344.4,162.6,42.9,1.65,-1.981
14.6,361.4,163.6,75.2,1.648,-1.727
14.7,371.4,172.1,106.5,1.647,-1.727
14.8,376.7,179,118.9,1.646,-1.457
14.9,376.9,180.8,119.8,1.646,-1.149
15,375.5,180.3,117.3,1.645,-0.988
15.1,361.7,179.5,114.1,1.646,-0.958
15.2,346.7,177.4,88.1,1.646,-0.958
15.3,328,163.2,44.3,1.646,-0.957
15.4,308.9,153.6,-0.5,1.646,-0.985
15.5,289.2,154.1,-44.3,1.646,-1.185
15.6,274.4,165.3,-79.3,1.648,-1.185
15.7,264.2,181.1,-105.1,1.649,-1.475
15.8,258.2,192.3,-119.6,1.649,-1.825
15.9,258.3,194.9,-119.7,1.65,-2.104
16,259.8,194.5,-117,1.651,-2.214
16.1,273,193.8,-113.8,1.651,-2.214
16.2,288.3,189.3,-86.7,1.651,-2.229
16.3,308.8,176.9,-41.6,1.651,-2.228
16.4,327.2,165.1,1.9,1.651,-2.115
16.5,345,161.6,42.8,1.65,-2.115
16.6,359.9,162.4,78.8,1.648,-1.869
16.7,371.8,171.9,106.8,1.647,-1.602
16.8,376.7,178.7,118.7,1.647,-1.307
16.9,376.9,179.9,120.2,1.646,-1.038
17,375.5,179.1,117.5,1.646,-1.038
17.1,361.5,178.4,114.6,1.646,-0.962
17.2,346.5,176,89.2,1.646,-0.952
17.3,327.7,162.1,45.7,1.646,-0.951
17.4,308.6,152.8,0.7,1.646,-0.951
17.5,288.8,153.3,-43.6,1.647,-1.066
17.6,274.2,166.2,-78.7,1.648,-1.327
17.7,263.7,181.7,-105.6,1.648,-1.646
17.8,258,192.3,-119.4,1.65,-2.013
17.9,258.1,194.8,-119.9,1.651,-2.013
18,259.9,194.6,-117.3,1.651,-2.199
18.1,273.3,193.8,-114.1,1.651,-2.244
18.2,288.5,189.1,-87.8,1.651,-2.249
18.3,309.1,176.2,-42.6,1.651,-2.249
18.4,327.6,163.9,1.3,1.651,-2.218
18.5,345.2,161.6,41.5,1.649,-2.012
18.6,359.9,162,78,1.648,-1.75
18.7,371.6,170.5,105.5,1.648,-1.75
18.8,376.7,177.3,118.7,1.647,-1.474
18.9,376.8,178.9,120.1,1.646,-1.151
19,375.4,178.2,117.5,1.646,-0.984
19.1,363.2,177.6,114.6,1.646,-0.951
19.2,345.6,175.5,88.9,1.646,-0.951
19.3,327.5,160.9,47.4,1.646,-0.952
19.4,308.3,151.8,2.2,1.647,-0.982
19.5,290.6,152.5,-42.6,1.647,-1.183
19.6,274,165.7,-77.6,1.647,-1.183
19.7,263.5,181.2,-105.1,1.649,-1.484
19.8,258.1,191.3,-119,1.65,-1.85
19.9,258,194.6,-120.1,1.651,-2.146
20,259.8,194.4,-117.4,1.651,-2.253
20.1,273.5,193.8,-114.2,1.651,-2.253
20.2,288.8,188.7,-88.7,1.651,-2.267
20.3,306.8,175.9,-44.2,1.651,-2.266
20.4,327.9,164.9,0.3,1.65,-2.146
20.5,345.3,160.4,40.2,1.649,-2.146
20.6,360.4,161.2,78.8,1.649,-1.893
20.7,370.6,169.6,105,1.647,-1.623
20.8,376.5,177.2,118.3,1.647,-1.317
20.9,376.4,178.2,119.4,1.646,-1.044
21,375,178.1,116.9,1.646,-1.044
21.1,362.6,177.4,114.1,1.646,-0.966
21.2,345.8,175.5,90.9,1.646,-0.961
21.3,327,162.2,48.6,1.646,-0.96
21.4,307.7,150.7,2.8,1.646,-0.96
21.5,290.6,151.8,-40.7,1.646,-1.068
21.6,273.7,163.8,-77,1.647,-1.332
21.7,263.4,180.9,-104.5,1.649,-1.662
21.8,258.1,190.5,-118.7,1.65,-1.662
21.9,258,193.9,-120,1.651,-2.044
22,260.1,193.9,-117.2,1.651,-2.235
22.1,273.7,193.3,-114.2,1.651,-2.28
22.2,289.1,187.8,-89.4,1.651,-2.284
22.3,307.2,174.6,-45.1,1.651,-2.284
22.4,325.8,163.6,-0.8,1.65,-2.247
22.5,346,159.8,40.4,1.65,-2.04
22.6,360.3,160.8,77.4,1.648,-1.772
22.7,371.2,169.4,105.4,1.647,-1.772
22.8,376.9,177.3,119.6,1.647,-1.484
22.9,377.1,178.7,120.9,1.646,-1.153
23,375.6,178,118.3,1.646,-0.98
23.1,362.9,177.2,115.2,1.646,-0.949
23.2,347.5,175.4,86.9,1.646,-0.949
23.3,327.2,162.7,44.7,1.646,-0.947
23.4,307.6,150.8,-1.9,1.646,-0.978
23.5,290.3,151.9,-45.1,1.646,-1.179
23.6,275,164.2,-80,1.648,-1.179
23.7,263.4,181.1,-103.5,1.649,-1.484
23.8,257.9,190.6,-119.5,1.65,-1.874
23.9,258,193.8,-119.8,1.65,-2.172
24,259.4,193.6,-117.1,1.651,-2.286
24.1,274,192.9,-113.7,1.651,-2.286
24.2,289.6,188.4,-84.2,1.651,-2.3
24.3,307.7,173.5,-39.6,1.651,-2.297
24.4,326.2,162.4,3.9,1.651,-2.171
24.5,345.8,159.3,43.9,1.65,-2.171
24.6,360.5,159.8,81.4,1.648,-1.916
24.7,370.8,169,106.5,1.647,-1.641
24.8,376.4,175.8,119.2,1.647,-1.327
24.9,376.7,177.4,120.3,1.647,-1.042
25,375.3,176.8,117.6,1.646,-1.042
25.1,362,176.2,114.6,1.646,-0.959
25.2,347.2,174.3,87.7,1.646,-0.953
25.3,326.2,161.2,44.6,1.646,-0.95
25.4,307.1,150.9,-0.7,1.646,-0.95
25.5,289.7,151.7,-44.4,1.646,-1.068
25.6,274.7,163.4,-79.3,1.648,-1.332
25.7,262.9,180,-106.2,1.649,-1.673
25.8,258.1,190.4,-119,1.649,-1.673
25.9,258.1,193.3,-119.8,1.651,-2.078
26,259.4,193.1,-117.1,1.651,-2.265
26.1,274,192.5,-113.9,1.651,-2.31
26.2,289.5,187.6,-86.3,1.651,-2.315
26.3,307.5,175.1,-42.1,1.651,-2.315
26.4,326.2,163.2,1.9,1.651,-2.273
26.5,343.8,159.7,42.4,1.65,-2.064
26.6,354.8,159.4,68.7,1.648,-1.796
26.7,353.8,159,66.8,1.647,-1.796
26.8,373.4,170.1,111.4,1.647,-1.528
26.9,375.8,176.5,117.7,1.647,-1.439
27,375.4,176.6,116.5,1.646,-1.057
27.1,374.3,176.5,115.4,1.646,-0.965
27.2,362.1,175.8,112.5,1.646,-0.965
27.3,347.2,174,88.7,1.646,-0.957
27.4,326.3,160.8,46,1.645,-0.955
27.5,307.1,149.4,0.2,1.646,-1.016
27.6,290,151.3,-42.9,1.647,-1.016
27.7,274.7,163.4,-78.4,1.647,-1.259
27.8,263.1,181.2,-105.4,1.649,-1.58
27.9,257.8,190.2,-119.5,1.65,-1.997
28,257.7,193.3,-120.3,1.651,-2.245
28.1,259.2,193.4,-117.6,1.651,-2.245
28.2,273.7,192.8,-114.4,1.651,-2.324
28.3,289.3,187.8,-87.2,1.651,-2.332
28.4,307.3,173.7,-43.3,1.651,-2.318
28.5,325.9,163.1,0.8,1.65,-2.318
28.6,346.8,160.1,43.9,1.649,-2.145
28.7,361.2,161.7,81.6,1.649,-1.883
28.8,371.7,169.6,107.1,1.647,-1.576
28.9,377.4,176.8,121.2,1.646,-1.221
29,377.7,178.8,122.9,1.646,-1.221
29.1,376.3,178.1,120.1,1.646,-0.974
29.2,363.1,177.5,117.1,1.645,-0.923
29.3,347.5,174.7,90.7,1.646,-0.918
29.4,326.7,160.8,48.3,1.646,-0.918
29.5,307.6,150.3,4,1.646,-0.926
29.6,289.7,150.8,-42.1,1.646,-1.092
29.7,274.9,162.4,-76.6,1.647,-1.384
29.8,266.5,177.8,-98.1,1.649,-1.384
29.9,257.6,188.1,-117.5,1.65,-1.773
30,256.1,195.5,-124,1.651,-2.127
30.1,261.4,195.8,-120.2,1.651,-2.311
30.2,271.7,194.9,-117.1,1.651,-2.377
30.3,290.2,188.5,-86.9,1.651,-2.377
30.4,308.3,175.4,-42.7,1.651,-2.38
30.5,326.9,163.7,0.9,1.65,-2.281
30.6,344.2,159.6,41.1,1.65,-2.036
30.7,360.9,160.1,79.9,1.649,-2.036
30.8,370.7,168.6,104.1,1.647,-1.755
30.9,376,175.4,117.6,1.646,-1.426
31,376,177.1,118.3,1.646,-1.079
31.1,374.5,176.5,115.8,1.646,-0.955
31.2,361.9,175.8,112.9,1.646,-0.955
31.3,346.8,174.2,85.9,1.646,-0.941
31.4,329.3,159.9,44.9,1.646,-0.94
31.5,307.7,149.8,0.2,1.646,-1
31.6,291,150.4,-42.1,1.647,-1
31.7,276.2,162.2,-75.8,1.648,-1.238
31.8,265.8,177.5,-101,1.65,-1.555
31.9,259.9,186.8,-114,1.65,-1.973
32,260,190.7,-114.6,1.65,-2.241
32.1,261.5,190.7,-112.1,1.651,-2.241
32.2,274.1,190.2,-109.1,1.651,-2.321
32.3,291.4,185.3,-80.4,1.651,-2.326
32.4,309.1,172.7,-37.1,1.651,-2.312
32.5,326.9,161.7,4.9,1.651,-2.312
32.6,344.3,158,44.8,1.65,-2.137
32.7,361.5,160.1,83.2,1.649,-1.883
32.8,371.5,169.1,107.6,1.647,-1.587
32.9,376.8,176.3,120.1,1.647,-1.587
33,377.1,177.6,121,1.646,-1.223
33.1,375.6,176.8,118.4,1.646,-0.971
33.2,361.5,175.9,115.2,1.646,-0.919
33.3,346.5,174,87.1,1.646,-0.915
33.4,327.9,159.5,43.8,1.646,-0.915
33.5,306.3,149.5,-1.1,1.646,-0.927
33.6,288.6,151.1,-45.7,1.647,-1.1
33.7,273.9,165.6,-79.7,1.648,-1.398
33.8,262.8,181.1,-107.6,1.65,-1.398
33.9,257.1,190.7,-120.2,1.65,-1.806
34,257.3,194.3,-120.9,1.651,-2.211
34.1,258.8,194.4,-118,1.651,-2.359
34.2,272.2,193.5,-114.8,1.651,-2.39
34.3,287.6,187.2,-85.4,1.651,-2.39
34.4,308.2,174.1,-41,1.651,-2.393
34.5,327,163.2,3,1.65,-2.304
34.6,344.1,159,42.6,1.649,-2.058
34.7,359.5,161.3,81.5,1.648,-2.058
34.8,371.1,168.1,105.3,1.648,-1.776
34.9,376.2,175.6,118,1.647,-1.435
35,376.6,177.6,119.6,1.646,-1.063
35.1,375.1,177,117,1.646,-0.93
35.2,361.5,176.1,114,1.646,-0.93
35.3,345.6,173.6,86.9,1.646,-0.913
35.4,327.7,159.9,45.6,1.646,-0.912
35.5,308.4,148.8,0.3,1.646,-0.989
35.6,288.7,150.4,-43.5,1.647,-0.989
35.7,273.8,162.6,-78.6,1.649,-1.241
35.8,263.5,179.9,-105.1,1.649,-1.581
35.9,258,189.3,-118.3,1.65,-2.055
36,257.7,193.5,-119.9,1.651,-2.31
36.1,259.5,193.1,-117.1,1.651,-2.31
36.2,272.5,192.5,-114,1.651,-2.394
36.3,288.1,187.7,-85.8,1.651,-2.402
36.4,308.4,173.3,-42.2,1.651,-2.383
36.5,326.8,162.9,0.9,1.651,-2.383
36.6,345.2,157.5,43.4,1.649,-2.195
36.7,359.5,161.4,80.3,1.649,-1.932
36.8,371.4,168.4,104.5,1.648,-1.613
36.9,376.6,175.5,118.6,1.647,-1.613
37,376.6,177.1,119.6,1.646,-1.239
37.1,375.1,176.5,116.9,1.646,-0.952
37.2,360.9,175.8,114,1.646,-0.906
37.3,345.6,172.8,88.8,1.645,-0.901
37.4,327.6,159.4,47.7,1.646,-0.901
37.5,307.9,148,1.4,1.647,-0.916
37.6,288.4,150,-42.2,1.647,-1.092
37.7,273.8,162.2,-77.1,1.647,-1.397
37.8,263.1,179.5,-104.8,1.649,-1.397
37.9,257.7,190,-118.3,1.65,-1.807
38,257.5,193.6,-119.7,1.651,-2.235
38.1,259.5,193.2,-116.9,1.651,-2.388
38.2,272.8,192.6,-113.9,1.651,-2.415
38.3,288.3,186.8,-87.1,1.651,-2.415
38.4,306.5,172.3,-43.1,1.651,-2.418
38.5,327.5,162.2,0.3,1.65,-2.328
38.6,345.1,158.4,41.5,1.65,-2.08
38.7,359.9,160.1,80.2,1.649,-2.08
38.8,370.6,166.8,103.8,1.648,-1.793
38.9,376.9,174.7,118.7,1.647,-1.447
39,376.9,176.7,120.1,1.646,-1.049
39.1,375.4,176.1,117.5,1.646,-0.906
39.2,363,175.3,114.5,1.646,-0.906
39.3,345.9,172.6,91.1,1.646,-0.891
39.4,327.1,158.5,48.8,1.646,-0.888
39.5,307.8,148.7,3.5,1.646,-0.965
39.6,293.5,149,-37.6,1.646,-0.965
39.7,272,160.7,-83.2,1.647,-1.226
39.8,262.1,180.8,-108.5,1.649,-1.525
39.9,259.2,188.4,-115.1,1.651,-2.1
40,256.8,194,-120.8,1.651,-2.1
40.1,260.2,193.8,-117.6,1.651,-2.343
40.2,272.9,192.5,-114.1,1.651,-2.43
40.3,288.7,186.1,-82.3,1.651,-2.445
40.4,307,172.1,-37.9,1.651,-2.425
40.5,327.8,160.6,4.6,1.651,-2.425
40.6,345.5,155.9,45.9,1.65,-2.226
40.7,360.2,159.1,83.3,1.648,-1.96
40.8,370.8,166,105.4,1.647,-1.638
40.9,376.8,173,118.6,1.646,-1.638
41,376.8,174.8,119.3,1.646,-1.241
41.1,375.3,174.3,116.8,1.646,-0.937
41.2,362.7,173.7,113.6,1.646,-0.888
41.3,345.5,172,87.7,1.646,-0.886
41.4,326.8,157.2,44.4,1.646,-0.886
41.5,307.5,146.8,-1.1,1.646,-0.895
41.6,290.3,148,-44.2,1.647,-1.074
41.7,274.9,161.8,-78.5,1.648,-1.38
41.8,263.3,177.5,-104.4,1.65,-1.38
41.9,258,187.6,-117.2,1.651,-1.813
42,257.5,192.4,-119,1.651,-2.263
42.1,259.1,192.1,-116.3,1.651,-2.417
42.2,273.5,191.2,-113,1.651,-2.45
42.3,289.2,185.1,-82.9,1.651,-2.45
42.4,307.3,171.5,-39.2,1.651,-2.453
42.5,325.9,159.5,3.6,1.651,-2.355
42.6,346,155.4,45.1,1.649,-2.107
42.7,360.8,156.7,83.4,1.648,-2.107
42.8,371.3,165.1,105.4,1.647,-1.816
42.9,377.1,171.7,119.2,1.647,-1.448
43,377.2,173.4,120.3,1.647,-1.024
43.1,375.8,172.7,117.7,1.646,-0.882
43.2,362.7,172.1,114.4,1.646,-0.882
43.3,347.5,170.5,89.4,1.646,-0.866
43.4,326.4,156,46.1,1.646,-0.866
43.5,307.1,145.6,0.3,1.646,-0.942
43.6,289.5,147.1,-44,1.647,-0.942
43.7,274.7,161.3,-77.9,1.648,-1.21
43.8,262.5,177.2,-105,1.65,-1.563
43.9,257.4,188.2,-118,1.65,-2.092
44,257.4,192.6,-119,1.651,-2.092
44.1,258.8,192.5,-116.3,1.651,-2.389
44.2,273.7,191.6,-113.2,1.651,-2.468
44.3,289.3,184.8,-84.9,1.651,-2.476
44.4,307.5,171.4,-41,1.651,-2.454
44.5,326.1,160.2,2,1.651,-2.454
44.6,346,153.2,43.1,1.649,-2.255
44.7,361.1,155.9,82.6,1.648,-1.989
44.8,371.3,163.6,104,1.648,-1.661
44.9,376.8,170.3,117.6,1.647,-1.661
45,377,172,119.2,1.646,-1.23
45.1,375.6,171.5,116.7,1.646,-0.919
45.2,362.4,171.1,113.6,1.646,-0.868
45.3,346.8,169.1,89.8,1.646,-0.865
45.4,326,156.4,47.8,1.646,-0.865
45.5,306.3,144.9,1.3,1.646,-0.877
45.6,289,147.1,-43.2,1.647,-1.056
45.7,273.7,160,-78.1,1.649,-1.378
45.8,262.9,177.4,-104.6,1.649,-1.378
45.9,257,188.4,-118.2,1.65,-1.838
46,257.1,192.3,-119.5,1.651,-2.311
46.1,258.5,192.2,-116.9,1.651,-2.466
46.2,271.4,191.3,-113.7,1.651,-2.497
46.3,289,186.4,-87.5,1.651,-2.497
46.4,307.4,170.9,-43.4,1.651,-2.503
46.5,326.3,160,0.6,1.651,-2.406
46.6,344.4,155.3,42.4,1.649,-2.147
46.7,361.5,156.7,81.6,1.649,-2.147
46.8,372,163.3,104.5,1.648,-1.851
46.9,377.1,169.7,117.8,1.646,-1.466
47,377.7,171.4,120.3,1.646,-1.006
47.1,376.1,171.1,117.5,1.646,-1.006
47.2,362.4,170.5,114.5,1.646,-0.862
47.3,346.5,168.4,90.8,1.646,-0.846
47.4,328.5,155.8,49.5,1.646,-0.847
47.5,306.1,144.1,2.7,1.646,-0.925
47.6,288.7,146.1,-42.1,1.648,-0.925
47.7,273.4,159.4,-77.5,1.648,-1.197
47.8,262.4,176.3,-104.5,1.649,-1.566
47.9,256.5,187.6,-118.5,1.651,-2.14
48,256.7,191.8,-119.6,1.651,-2.14
48.1,258.2,191.8,-117,1.651,-2.438
48.2,271.7,190.9,-113.8,1.651,-2.518
48.3,289.3,186,-89,1.651,-2.526
48.4,307.8,170.3,-44.5,1.651,-2.508
48.5,326.5,159.1,4.9,1.65,-2.508
48.6,344.7,154.7,47.4,1.65,-2.301
48.7,359.8,156.5,81,1.648,-2.026
48.8,371.7,161.5,105.2,1.647,-1.683
48.9,377,168.5,118,1.647,-1.683
49,377.2,169.7,118.9,1.646,-1.227
49.1,375.6,169.5,116.4,1.646,-0.892
49.2,365.1,169,113.5,1.646,-0.844
49.3,345,165.9,84.1,1.646,-0.839
49.4,327.9,154.3,45,1.646,-0.839
49.5,308.5,143.7,-2.2,1.647,-0.862
49.6,287.5,145.7,-48.3,1.647,-1.037
49.7,273.5,158.7,-78.7,1.648,-1.374
49.8,261.8,175.3,-106.8,1.649,-1.374
49.9,256.4,188.3,-119.4,1.651,-1.843
50,256.6,192.1,-119.5,1.651,-2.363
50.1,258,191.7,-116.8,1.651,-2.526
50.2,271.7,190.7,-113.6,1.651,-2.551
50.3,287.2,185.7,-84.4,1.651,-2.551
50.4,307.9,171.9,-40,1.651,-2.553
50.5,326.8,160.9,3.9,1.651,-2.453
50.6,345.2,153.7,46.9,1.65,-2.187
50.7,360.7,155.7,85.7,1.648,-2.187
50.8,372.3,162.3,105.6,1.647,-1.884
50.9,377.8,169.1,119.8,1.646,-1.48
51,377.9,170.4,120.6,1.646,-0.982
51.1,376.4,169.7,118,1.646,-0.982
51.2,361.9,169,114.8,1.646,-0.832
51.3,346.6,167.6,89.5,1.646,-0.82
51.4,327.7,153.8,45.5,1.646,-0.818
51.5,307.7,143.6,-1.7,1.646,-0.896
51.6,287.8,145.5,-45.7,1.647,-0.896
51.7,272.6,159.9,-79.3,1.648,-1.183
51.8,261.8,175.3,-105.6,1.65,-1.561
51.9,256.3,186.7,-119.5,1.65,-2.185
52,256.1,191.8,-120.5,1.651,-2.185
52.1,258.1,191.7,-117.6,1.651,-2.492
52.2,271.7,190.8,-114.5,1.651,-2.577
52.3,287.3,185.9,-85.9,1.651,-2.584
52.4,308.5,172.4,-40.2,1.651,-2.564
52.5,327.2,160.9,3.5,1.651,-2.564
52.6,345.5,155,46.2,1.649,-2.348
52.7,360.7,156.8,84.7,1.648,-2.066
52.8,371.4,162.2,104.7,1.647,-1.713
52.9,377.3,168.7,118,1.647,-1.713
53,377.8,170.2,120,1.646,-1.219
53.1,376.3,169.5,117.3,1.646,-0.867
53.2,363.7,169,114.1,1.646,-0.818
53.3,346,167.4,90.3,1.646,-0.814
53.4,327.2,153.3,46.8,1.646,-0.814
53.5,307.3,142.9,-0.4,1.646,-0.83
53.6,289.5,144.3,-45.2,1.647,-1.018
53.7,272.9,158,-77.6,1.649,-1.358
53.8,261.6,175,-105.4,1.649,-1.358
53.9,256.3,186.9,-118.9,1.65,-1.853
54,256.3,191,-119.5,1.651,-2.416
54.1,258.3,190.9,-116.9,1.651,-2.576
54.2,272.3,190.2,-113.7,1.651,-2.604
54.3,287.8,184.4,-86.3,1.651,-2.604
54.4,306.1,170.3,-41.9,1.651,-2.605
54.5,327.6,160.6,2.7,1.651,-2.5
54.6,345.5,155.7,44.2,1.649,-2.228
54.7,360.8,156.7,83.6,1.648,-2.228
54.8,371.3,159.7,103.8,1.648,-1.923
54.9,377.6,167.4,118.5,1.647,-1.509
55,377.7,168.7,120,1.646,-0.975
55.1,376.2,168,117.1,1.647,-0.975
55.2,363.5,167.3,114.1,1.646,-0.82
55.3,345.4,165.8,90.7,1.646,-0.805
55.4,326.6,153.6,47.5,1.646,-0.806
55.5,307.1,142.2,1.1,1.646,-0.888
55.6,289,143.7,-44.4,1.647,-0.888
55.7,272.4,156.4,-77.4,1.647,-1.173
55.8,261.5,174.3,-104.3,1.649,-1.559
55.9,256.1,185.8,-119,1.65,-2.217
56,256.2,189.6,-119.3,1.651,-2.217
56.1,258.2,189.7,-116.6,1.651,-2.543
56.2,272.4,188.9,-113.5,1.651,-2.621
56.3,287.8,184.5,-87.9,1.651,-2.625
56.4,306.3,168.7,-43.1,1.651,-2.605
56.5,327.7,159.5,1.4,1.651,-2.605
56.6,345.5,154.2,42.7,1.649,-2.389
56.7,360.8,155.4,82.5,1.649,-2.102
56.8,371.4,158.7,102.9,1.647,-1.755
56.9,377.4,165.4,117.8,1.647,-1.755
57,377.8,166.2,119.9,1.646,-1.231
57.1,376.3,165.9,116.8,1.646,-0.847
57.2,363,165.4,113.4,1.646,-0.796
57.3,347.2,164,86.8,1.646,-0.795
57.4,326.1,152.1,42.9,1.646,-0.795
57.5,306.5,142.5,-4.6,1.647,-0.813
57.6,288.6,144.6,-48.7,1.647,-1.006
57.7,273.5,157.6,-79.8,1.648,-1.351
57.8,261,172.9,-107.2,1.649,-1.351
57.9,255.7,185,-119.9,1.65,-1.886
58,255.7,189.7,-120.4,1.651,-2.474
58.1,257.1,190.3,-117.6,1.651,-2.633
58.2,272.2,189.7,-114.2,1.651,-2.633
58.3,288,185.1,-83.4,1.651,-2.663
58.4,306.4,170.4,-38.3,1.651,-2.662
58.5,325.6,161.6,5.6,1.65,-2.55
58.6,346.1,156.5,47.9,1.65,-2.272
58.7,361.2,157.4,86,1.648,-2.272
58.8,371.7,160,104.8,1.647,-1.96
58.9,377.5,165.8,118.6,1.647,-1.525
59,377.9,167.1,119.8,1.646,-0.94
59.1,376.4,166.4,117,1.646,-0.94
59.2,362.7,166.3,113.7,1.646,-0.794
59.3,347.2,164.3,88.7,1.646,-0.781
59.4,326,152.2,44.8,1.646,-0.78
59.5,306,142.1,-3.7,1.646,-0.865
59.6,288.7,144.6,-46.8,1.646,-0.865
59.7,273.3,157.1,-78.8,1.648,-1.162
59.8,260.9,173.7,-106.5,1.65,-1.553
59.9,256.1,187,-119,1.651,-2.271
60,256,191,-119.8,1.651,-2.271
60.1,257.4,190.9,-117,1.651,-2.6
60.2,272.6,190.1,-113.9,1.651,-2.678
60.3,288.6,184.1,-83.5,1.651,-2.684
60.4,306.9,170.8,-38.6,1.651,-2.653
60.5,326.1,160.3,5.1,1.651,-2.653
60.6,344.2,157.1,46.8,1.65,-2.432
60.7,362,155.7,86.6,1.648,-2.138
60.8,371.7,159.7,103.9,1.647,-1.77
60.9,377.9,165.9,118.9,1.647,-1.77
61,378.1,166.9,120,1.647,-1.199
61.1,376.5,166.1,117.1,1.646,-0.813
61.2,362.7,165.6,114.2,1.646,-0.765
61.3,347.2,164.3,90.2,1.646,-0.762
61.4,328.2,151.7,45.9,1.646,-0.762
61.5,306,141.6,-1.3,1.646,-0.783
61.6,288.1,143.2,-45.9,1.647,-0.984
61.7,273,157.5,-78,1.648,-1.333
